%YAML 1.1
%TAG !u! tag:unity3d.com,2011:
--- !u!114 &11400000
MonoBehaviour:
  m_ObjectHideFlags: 0
  m_CorrespondingSourceObject: {fileID: 0}
  m_PrefabInstance: {fileID: 0}
  m_PrefabAsset: {fileID: 0}
  m_GameObject: {fileID: 0}
  m_Enabled: 1
  m_EditorHideFlags: 0
  m_Script: {fileID: 11500000, guid: b9db73b414cd5d74081c6b094730d43a, type: 3}
  m_Name: Railway
  m_EditorClassIdentifier: 
  tilePrefab: {fileID: 6488751834393628229, guid: 18239ca3c95a39e4aba478d555449201,
    type: 3}
  type: 4
  key: Railway
  minInSequence: 1
  maxInSequence: 3
  step: 1
